{
  "title": "Home",
  "date": "2020-03-02T19:22:05.820Z",
  "draft": true,
  "collections": [],
  "versions": [
    {
      "title": "Start",
      "slug": "start",
      "language": "de",
      "draft": true,
      "blocks": [
        {
          "id": "dc3e0582-cef6-40da-88af-5b966f091333",
          "block": "text",
          "_template": "0",
          "content": "<p>Lorem <strong>ipsum</strong> dolor sit amet, consetetur sadipscing elitr, sed diam nonumy eirmod tempor invidunt ut labore et dolore magna aliquyam erat, sed diam voluptua. Lorem ipsum dolor sit amet, consetetur sadipscing elitr, sed diam nonumy eirmod tempor invidunt ut labore et dolore magna aliquyam erat, sed diam voluptua.</p>",
          "label": "Lol"
        }
      ]
    },
    {
      "title": "Home",
      "slug": "home",
      "language": "en",
      "draft": true,
      "blocks": [
        {
          "id": "dc3e0582-cef6-40da-88af-5b966f091333",
          "block": "text",
          "_template": "0",
          "content": "<p>Lorem <strong>ipsum</strong> dolor sit amet, consetetur sadipscing elitr, sed diam nonumy eirmod tempor invidunt ut labore et dolore magna aliquyam erat, sed diam voluptua. Lorem ipsum dolor sit amet, consetetur sadipscing elitr, sed diam nonumy eirmod tempor invidunt ut labore et dolore magna aliquyam erat, sed diam voluptua.</p>",
          "label": "Lol"
        }
      ]
    }
  ]
}