{
  "main": [
    {
      "label": "Blog",
      "link": "Blog"
    },
    {
      "label": "Home",
      "link": "",
      "internal": true
    },
    {
      "label": "Contact",
      "link": ""
    }
  ],
  "__gatsby_resolved": {
    "fileRelativePath": "/content/data/navigation.json"
  }
}