{
  "lightTheme": {
    "error": "#eb4034",
    "success": "#2fde3d",
    "accent": "#2b4bf7",
    "foreground": "#444",
    "background": "#fafafa",
    "dimmed": "#999",
    "faded": "#eee",
    "highlight": "#333",
    "raised": "#fff",
    "lowered": "#efefef",
    "shadow": "#aaaaaa",
    "overlay": "rgba(255,255,255,0.5)"
  },
  "darkTheme": {
    "error": "#eb4034",
    "success": "#2fde3d",
    "accent": "#0885ff",
    "foreground": "#bbb",
    "background": "#1c1b1b",
    "dimmed": "#666",
    "faded": "#222",
    "highlight": "#fff",
    "raised": "#252525",
    "lowered": "#161617",
    "shadow": "#0a0a0a",
    "overlay": "rgba(0,0,0,0.5)"
  },
  "__gatsby_resolved": {
    "fileRelativePath": "/content/data/theme.json"
  }
}