{
  "title": "My new article",
  "date": "2020-03-02T19:22:05.820Z",
  "collections": ["articles"],
  "draft": false,
  "versions": [
    {
      "title": "Mein neuer Artikel",
      "slug": "mein-neuer-artikel",
      "draft": false,
      "language": "de",
      "blocks": [
      ]
    },
    {
      "title": "My new article",
      "slug": "my-new-article",
      "language": "en",
      "draft": false,
      "blocks": [
      ]
    }
  ]
}